<?xml version="1.0" encoding="UTF-8"?>
<svg width="40px" height="40px" viewBox="0 0 40 40" version="1.1" xmlns="http://www.w3.org/2000/svg" xmlns:xlink="http://www.w3.org/1999/xlink">
    <title>Icon / Plus</title>
    <g id="Icon-/-Plus" stroke="none" stroke-width="1" fill="none" fill-rule="evenodd">
        <polygon id="Path" fill="#191919" points="36 17.7142857 22.2857143 17.7142857 22.2857143 4 17.7142857 4 17.7142857 17.7142857 4 17.7142857 4 22.2857143 17.7142857 22.2857143 17.7142857 36 22.2857143 36 22.2857143 22.2857143 36 22.2857143"></polygon>
    </g>
</svg>