<?xml version="1.0" encoding="UTF-8"?>
<svg width="40px" height="40px" viewBox="0 0 40 40" version="1.1" xmlns="http://www.w3.org/2000/svg" xmlns:xlink="http://www.w3.org/1999/xlink">
    <title>Icon / Search</title>
    <g id="Icon-/-Search" stroke="none" stroke-width="1" fill="none" fill-rule="evenodd">
        <path d="M17.1058962,34.2099637 C21.0530817,34.2099637 24.68167,32.8522557 27.5768429,30.6008125 L36.9765328,40 L40,36.9766945 L30.60031,27.5775069 C32.8540119,24.6803507 34.2117924,21.0519564 34.2117924,17.1049818 C34.2117924,7.67372247 26.5376597,0 17.1058962,0 C7.67413268,0 0,7.67372247 0,17.1049818 C0,26.5362412 7.67413268,34.2099637 17.1058962,34.2099637 Z M17.1058962,4.27624546 C24.1813225,4.27624546 29.9353183,10.0299337 29.9353183,17.1049818 C29.9353183,24.1800299 24.1813225,29.9337182 17.1058962,29.9337182 C10.0304699,29.9337182 4.27647405,24.1800299 4.27647405,17.1049818 C4.27647405,10.0299337 10.0304699,4.27624546 17.1058962,4.27624546 Z" id="Shape" fill="#191919"></path>
    </g>
</svg>